%YAML 1.1
%TAG !u! tag:unity3d.com,2011:
--- !u!114 &11400000
MonoBehaviour:
  m_ObjectHideFlags: 0
  m_CorrespondingSourceObject: {fileID: 0}
  m_PrefabInstance: {fileID: 0}
  m_PrefabAsset: {fileID: 0}
  m_GameObject: {fileID: 0}
  m_Enabled: 1
  m_EditorHideFlags: 0
  m_Script: {fileID: 11500000, guid: 550dcd9b605f6734a929104c2ec1c99e, type: 3}
  m_Name: BulletMod
  m_EditorClassIdentifier: 
  name: Explosive Bullet
  description: A bullet that explodes on impact
  tier: 3
  price: 10000
  image: {fileID: 0}
  bulletVariant: {fileID: 0}
